module backend

go 1.19

require github.com/gorilla/handlers v1.5.1

require (
	github.com/felixge/httpsnoop v1.0.1 // indirect
	github.com/gorilla/mux v1.8.0
	github.com/joho/godotenv v1.4.0
	github.com/lib/pq v1.10.7
)
